R Workshop
…
```r
geburten %>% 
  select(age_m) %>% 
  mutate(age_class = case_when(age_m < 20 ~ "unter 20",
                               age_m>=20 & age_m<25 ~ "20 bis 24",
                               age_m>=25 & age_m<30 ~ "25 bis 29",
                               age_m>=30 & age_m<35 ~ "30 bis 34",
                               age_m>=35 & age_m<40 ~ "35 bis 39",
                               age_m>=40 ~ "40 und älter",
                               TRUE ~ "unbekannt"))
```

```
## # A tibble: 10,000 × 2
##    age_m age_class
##    <dbl> <chr>    
##  1    28 25 bis 29
##  2    20 20 bis 24
##  3    31 30 bis 34
##  4    24 20 bis 24
##  5    38 35 bis 39
##  6    27 25 bis 29
##  7    26 25 bis 29
##  8    20 20 bis 24
##  9    27 25 bis 29
## 10    34 30 bis 34
## # ℹ 9,990 more rows
```
…
```r
data |> bind_rows()
```

```
## # A tibble: 1,440 × 6
##    bfs_nr_gemeinde gemeinde_name     bezirk_nr bezirk_name jahr  anzahl_personen
##    <chr>           <chr>             <chr>     <chr>       <chr> <chr>          
##  1 4461            Amriswil          2011      Bezirk Arb… 2024  14825          
##  2 4406            Dozwil            2011      Bezirk Arb… 2024  725            
##  3 4416            Hefenhofen        2011      Bezirk Arb… 2024  1304           
##  4 4421            Horn              2011      Bezirk Arb… 2024  3148           
##  5 4451            Uttwil            2011      Bezirk Arb… 2024  1909           
##  6 4536            Basadingen-Schla… 2012      Bezirk Fra… 2024  1883           
##  7 4801            Berlingen         2012      Bezirk Fra… 2024  955            
##  8 4561            Felben-Wellhausen 2012      Bezirk Fra… 2024  3213           
##  9 4816            Homburg           2012      Bezirk Fra… 2024  1571           
## 10 4590            Hüttlingen        2012      Bezirk Fra… 2024  903            
## # ℹ 1,430 more rows
```
…
```
## ℹ Loading dataspotR
```

```r
# Funktion zum aufbereiten aus dem Package
referenzdaten <- prepare_raw_results(data)
referenzdaten
```

```
## # A tibble: 317 × 36
##    `_type`      id    `_version` tenantId publicState modelId href  label status
##    <chr>        <chr>      <int> <chr>    <chr>       <chr>   <chr> <chr> <chr> 
##  1 ReferenceOb… 8a4a…          2 51584d0… DRAFT       13ae8d… /web… Haus… WORKI…
##  2 ReferenceOb… 018c…          6 51584d0… DRAFT       13ae8d… /web… Fünf… WORKI…
##  3 ReferenceOb… f3e0…          1 51584d0… DRAFT       13ae8d… /web… Anga… WORKI…
##  4 ReferenceOb… eb55…          3 51584d0… DRAFT       13ae8d… /web… schw… WORKI…
##  5 ReferenceOb… 9628…          2 51584d0… DRAFT       13ae8d… /web… Beit… WORKI…
##  6 ReferenceOb… 3bc5…          5 51584d0… DRAFT       13ae8d… /web… List… WORKI…
##  7 ReferenceOb… c9eb…          1 51584d0… DRAFT       13ae8d… /web… NOGA… WORKI…
##  8 ReferenceOb… cffe…          4 51584d0… DRAFT       13ae8d… /web… gros… WORKI…
##  9 ReferenceOb… 5ba6…          3 51584d0… DRAFT       13ae8d… /web… Haus… WORKI…
## 10 ReferenceOb… fb7e…          3 51584d0… DRAFT       13ae8d… /web… Haus… WORKI…
## # ℹ 307 more rows
## # ℹ 27 more variables: title <chr>, db <chr>, createdBy <chr>,
## #   dateCreated <dbl>, parentId <chr>, stringType <chr>, description <chr>,
## #   favorite <lgl>, validFrom <dbl>, tags <chr>, self <chr>, derivedFrom <chr>,
## #   inCollection <chr>, literals <chr>, rangeOf <chr>, deployedIn <chr>,
## #   fromMappings <chr>, toMappings <chr>, fromRules <chr>, subordinateOf <chr>,
## #   transformations <chr>, subordinates <chr>, attributedTo <chr>, …
```
…
.panelset[
.panel[.panel-name[Liste beziehen]

```r
# Das, was vorhin gemacht wurde in einer Funktion komprimiert
referenzdaten <- get_referenzdaten_list()
referenzdaten |> 
  select(id,label,title,createdBy)  
```

```
## # A tibble: 317 × 4
##    id                                   label                    title createdBy
##    <chr>                                <chr>                    <chr> <chr>    
##  1 8a4a1ba1-bb81-49ed-9c6c-7dc297ff1556 Haushalte nach Bevölker… Haus… negloff  
##  2 018cca2a-fc08-41ee-8cc0-7cbc5eddbff4 Fünfjahresaltersklasse   Fünf… lparment…
##  3 f3e0c6ca-ac1f-415a-8bb9-9cd6a6416ee8 Angabe zur Anzahl der P… Anga… negloff  
##  4 eb551fb0-2abd-41de-911f-cfd57a214a22 schweizerisch-ausländis… schw… negloff  
##  5 96289c85-4a26-47f4-a671-37fc30c9af1c Beitragsart Listenspital Art … cwalser  
##  6 3bc5ee07-5f08-49f1-871b-ca45cf8f1221 Listenspital TG (mit BU… <NA>  cwalser  
##  7 c9eb8943-7197-42fa-b3a4-597cef7b8f33 NOGA Abschnitt           NOGA… florenz  
##  8 cffe10e3-63c8-45a1-81c5-fa64e2bd7fed grosser Privathaushalt … (pla… negloff  
##  9 5ba690c0-d60c-4bbb-8466-f0f32f1cbf9f Haushalte mit ständiger… Haus… negloff  
## 10 fb7e5a9f-8919-4452-99c5-927979ee8628 Haushalte nach Meldever… Haus… negloff  
## # ℹ 307 more rows
```

]
.panel[.panel-name[Referenzdatenobjekt beziehen]

```r
get_referenzdaten("Thurgauer Gemeinden") |> 
  select(shortText,label,code)
```

```
## # A tibble: 80 × 3
##    shortText  label             code 
##    <chr>      <chr>             <chr>
##  1 Arbon      4401 - Arbon      4401 
##  2 Dozwil     4406 - Dozwil     4406 
##  3 Egnach     4411 - Egnach     4411 
##  4 Hefenhofen 4416 - Hefenhofen 4416 
##  5 Horn       4421 - Horn       4421 
##  6 Kesswil    4426 - Kesswil    4426 
##  7 Roggwil    4431 - Roggwil    4431 
##  8 Romanshorn 4436 - Romanshorn 4436 
##  9 Salmsach   4441 - Salmsach   4441 
## 10 Sommeri    4446 - Sommeri    4446 
## # ℹ 70 more rows
```
…
