…
```r
geburten %>% 
  select(age_m) %>% 
  mutate(age_class = case_when(age_m < 20 ~ "unter 20",
                               age_m>=20 & age_m<25 ~ "20 bis 24",
                               age_m>=25 & age_m<30 ~ "25 bis 29",
                               age_m>=30 & age_m<35 ~ "30 bis 34",
                               age_m>=35 & age_m<40 ~ "35 bis 39",
                               age_m>=40 ~ "40 und älter",
                               TRUE ~ "unbekannt"))
```

```
## # A tibble: 139,093 × 2
##    age_m age_class
##         
##  1    28 25 bis 29
##  2    20 20 bis 24
##  3    31 30 bis 34
##  4    24 20 bis 24
##  5    38 35 bis 39
##  6    27 25 bis 29
##  7    26 25 bis 29
##  8    20 20 bis 24
##  9    27 25 bis 29
## 10    34 30 bis 34
## # … with 139,083 more rows
```
…
